lab1/ALU_chisel/verilog/test.vcd
$date
	Thu Apr  8 18:30:04 2021
$end
$version
	Icarus Verilog
$end
$timescale
	10ps
$end
$scope module FLS_tb $end
$var wire 7 ! out [6:0] $end
$var reg 1 " clk $end
$var reg 1 # en $end
$var reg 7 $ in [6:0] $end
$var reg 1 % reset $end
$scope module fls $end
$var wire 1 & _T_4 $end
$var wire 7 ' alu_io_a [6:0] $end
$var wire 7 ( alu_io_b [6:0] $end
$var wire 1 " clock $end
$var wire 1 # io_en $end
$var wire 7 ) io_in [6:0] $end
$var wire 7 * io_out [6:0] $end
$var wire 1 % reset $end
$var wire 7 + alu_io_res [6:0] $end
$var wire 1 , _T_9 $end
$var wire 1 - _T_8 $end
$var wire 1 . _T_6 $end
$var wire 1 / _T_5 $end
$var wire 1 0 _T_3 $end
$var wire 1 1 _T_2 $end
$var wire 1 2 _T $end
$var wire 7 3 _GEN_9 [6:0] $end
$var wire 3 4 _GEN_8 [2:0] $end
$var wire 3 5 _GEN_7 [2:0] $end
$var wire 7 6 _GEN_6 [6:0] $end
$var wire 3 7 _GEN_5 [2:0] $end
$var wire 3 8 _GEN_21 [2:0] $end
$var wire 7 9 _GEN_20 [6:0] $end
$var wire 7 : _GEN_19 [6:0] $end
$var wire 7 ; _GEN_18 [6:0] $end
$var wire 7 < _GEN_17 [6:0] $end
$var wire 3 = _GEN_16 [2:0] $end
$var wire 3 > _GEN_15 [2:0] $end
$var wire 7 ? _GEN_14 [6:0] $end
$var wire 7 @ _GEN_13 [6:0] $end
$var wire 3 A _GEN_12 [2:0] $end
$var wire 3 B _GEN_10 [2:0] $end
$var wire 7 C _GEN_0 [6:0] $end
$var reg 7 D current [6:0] $end
$var reg 3 E current_state [2:0] $end
$var reg 7 F prev [6:0] $end
$scope module alu $end
$var wire 7 G io_a [6:0] $end
$var wire 7 H io_b [6:0] $end
$var wire 7 I io_res [6:0] $end
$upscope $end
$upscope $end
$upscope $end
$enddefinitions $end
#0
$dumpvars
bx I
bx H
bx G
bx F
bx E
bx D
bx C
bx B
bx A
bx @
bx ?
bx >
bx =
bx <
bx ;
bx :
bx 9
bx 8
b11 7
bx 6
bx 5
b101 4
bx 3
x2
x1
x0
x/
x.
x-
x,
bx +
bx *
b10 )
bx (
bx '
1&
1%
b10 $
0#
0"
bx !
$end
#500
b0 C
b0 3
b0 6
b0 :
b0 9
b0 8
b0 5
b0 =
b0 <
b0 ;
b0 @
b0 ?
b0 >
b0 B
b0 A
b0 +
b0 I
b0 (
b0 H
b0 !
b0 *
b0 D
b0 '
b0 G
b0 F
12
01
00
0/
0.
0-
0,
b0 E
1"
#600
b0 4
b0 7
0&
b10 C
b100 5
b110 B
1#
#1000
0"
#1200
0%
#1500
b10 8
b10 :
b10 =
b10 <
b10 >
b10 6
b10 @
b10 3
b10 7
b10 4
b10 A
b10 +
b10 I
b10 (
b10 H
b10 !
b10 *
b10 D
02
10
b10 E
1"
#2000
0"
#2500
b101 4
b11 7
1&
b0 6
b10 5
b10 B
1"
0#
#3000
0"
#3500
b11 =
b11 >
b11 8
b11 5
b11 B
b11 A
00
1/
b11 E
1"
#4000
0"
#4100
b11 4
b10 9
b100 8
0&
b10 6
b100 5
b110 B
1#
#4500
b100 >
b10 ?
b100 3
b100 7
b100 =
b10 ;
b100 4
b100 A
b100 +
b100 I
b10 '
b10 G
b10 F
0/
1.
b100 E
1"
#4900
b101 8
b101 =
b101 4
b11 7
1&
b10 3
b100 B
0#
#5000
0"
#5500
b101 5
b101 >
b101 B
b101 A
0.
1-
b101 E
1"
#5700
b11 $
b11 )
#6000
0"
#6500
1"
#7000
0"
#7100
b100 :
b110 8
b100 <
b110 =
b101 7
b100 @
b110 >
0&
b11 C
b100 5
b100 3
b110 B
1#
#7500
b110 8
b110 A
b110 =
b100 6
b110 3
b110 7
b110 4
b110 >
b110 +
b110 I
b100 (
b100 H
b100 !
b100 *
b100 D
0-
1,
b110 E
1"
#8000
0"
#8500
1"
#9000
0"
#9500
1"
#10000
b100 C
0"
b100 $
b100 )
#10500
1"
#10600
b101 8
b101 =
b101 >
b101 A
b101 4
b11 7
1&
b10 6
b110 5
b100 3
0#
#11000
0"
#11500
b101 5
b101 B
1-
0,
b101 E
1"
#12000
b100 9
b110 :
b110 8
b100 ;
b110 <
b110 =
b101 7
b100 ?
b110 @
b110 >
0&
b100 6
b100 5
b110 3
b110 B
0"
1#
#12300
b101 C
b101 $
b101 )
#12500
b110 8
b110 A
b110 =
b110 6
b1010 3
b110 7
b110 4
b110 >
b110 (
b110 H
b110 !
b110 *
b110 D
b1010 +
b1010 I
b100 '
b100 G
b100 F
0-
1,
b110 E
1"
